(['/home/conz/Documents/development/pyinvaders/run.py'],
 ['/home/conz/Documents/development/pyinvaders',
  '/home/conz/Documents/development/pyinvaders'],
 ['codecs'],
 ['/home/conz/.local/lib/python3.6/site-packages/_pyinstaller_hooks_contrib/hooks/stdhooks',
  '/home/conz/.local/lib/python3.6/site-packages/_pyinstaller_hooks_contrib/hooks/stdhooks/__pycache__',
  '/home/conz/.local/lib/python3.6/site-packages/_pyinstaller_hooks_contrib/hooks/rthooks',
  '/home/conz/.local/lib/python3.6/site-packages/_pyinstaller_hooks_contrib/hooks/rthooks/__pycache__',
  '/home/conz/.local/lib/python3.6/site-packages/_pyinstaller_hooks_contrib/hooks'],
 [],
 [],
 False,
 False,
 False,
 '3.6.9 (default, Jan 26 2021, 15:33:00) \n[GCC 8.4.0]',
 [('run', '/home/conz/Documents/development/pyinvaders/run.py', 'PYSOURCE')],
 [('_dummy_thread', '/usr/lib/python3.6/_dummy_thread.py', 'PYMODULE'),
  ('_strptime', '/usr/lib/python3.6/_strptime.py', 'PYMODULE'),
  ('datetime', '/usr/lib/python3.6/datetime.py', 'PYMODULE'),
  ('calendar', '/usr/lib/python3.6/calendar.py', 'PYMODULE'),
  ('argparse', '/usr/lib/python3.6/argparse.py', 'PYMODULE'),
  ('gettext', '/usr/lib/python3.6/gettext.py', 'PYMODULE'),
  ('struct', '/usr/lib/python3.6/struct.py', 'PYMODULE'),
  ('textwrap', '/usr/lib/python3.6/textwrap.py', 'PYMODULE'),
  ('copy', '/usr/lib/python3.6/copy.py', 'PYMODULE'),
  ('tracemalloc', '/usr/lib/python3.6/tracemalloc.py', 'PYMODULE'),
  ('pickle', '/usr/lib/python3.6/pickle.py', 'PYMODULE'),
  ('pprint', '/usr/lib/python3.6/pprint.py', 'PYMODULE'),
  ('doctest', '/usr/lib/python3.6/doctest.py', 'PYMODULE'),
  ('unittest', '/usr/lib/python3.6/unittest/__init__.py', 'PYMODULE'),
  ('unittest.signals', '/usr/lib/python3.6/unittest/signals.py', 'PYMODULE'),
  ('signal', '/usr/lib/python3.6/signal.py', 'PYMODULE'),
  ('unittest.main', '/usr/lib/python3.6/unittest/main.py', 'PYMODULE'),
  ('unittest.runner', '/usr/lib/python3.6/unittest/runner.py', 'PYMODULE'),
  ('unittest.loader', '/usr/lib/python3.6/unittest/loader.py', 'PYMODULE'),
  ('unittest.suite', '/usr/lib/python3.6/unittest/suite.py', 'PYMODULE'),
  ('unittest.case', '/usr/lib/python3.6/unittest/case.py', 'PYMODULE'),
  ('contextlib', '/usr/lib/python3.6/contextlib.py', 'PYMODULE'),
  ('logging', '/usr/lib/python3.6/logging/__init__.py', 'PYMODULE'),
  ('threading', '/usr/lib/python3.6/threading.py', 'PYMODULE'),
  ('_threading_local', '/usr/lib/python3.6/_threading_local.py', 'PYMODULE'),
  ('string', '/usr/lib/python3.6/string.py', 'PYMODULE'),
  ('unittest.result', '/usr/lib/python3.6/unittest/result.py', 'PYMODULE'),
  ('unittest.util', '/usr/lib/python3.6/unittest/util.py', 'PYMODULE'),
  ('pdb', '/usr/lib/python3.6/pdb.py', 'PYMODULE'),
  ('getopt', '/usr/lib/python3.6/getopt.py', 'PYMODULE'),
  ('pydoc', '/usr/lib/python3.6/pydoc.py', 'PYMODULE'),
  ('webbrowser', '/usr/lib/python3.6/webbrowser.py', 'PYMODULE'),
  ('socket', '/usr/lib/python3.6/socket.py', 'PYMODULE'),
  ('selectors', '/usr/lib/python3.6/selectors.py', 'PYMODULE'),
  ('shutil', '/usr/lib/python3.6/shutil.py', 'PYMODULE'),
  ('zipfile', '/usr/lib/python3.6/zipfile.py', 'PYMODULE'),
  ('py_compile', '/usr/lib/python3.6/py_compile.py', 'PYMODULE'),
  ('dummy_threading', '/usr/lib/python3.6/dummy_threading.py', 'PYMODULE'),
  ('tarfile', '/usr/lib/python3.6/tarfile.py', 'PYMODULE'),
  ('gzip', '/usr/lib/python3.6/gzip.py', 'PYMODULE'),
  ('_compression', '/usr/lib/python3.6/_compression.py', 'PYMODULE'),
  ('lzma', '/usr/lib/python3.6/lzma.py', 'PYMODULE'),
  ('bz2', '/usr/lib/python3.6/bz2.py', 'PYMODULE'),
  ('stat', '/usr/lib/python3.6/stat.py', 'PYMODULE'),
  ('email.message', '/usr/lib/python3.6/email/message.py', 'PYMODULE'),
  ('email.policy', '/usr/lib/python3.6/email/policy.py', 'PYMODULE'),
  ('email.contentmanager',
   '/usr/lib/python3.6/email/contentmanager.py',
   'PYMODULE'),
  ('email.quoprimime', '/usr/lib/python3.6/email/quoprimime.py', 'PYMODULE'),
  ('email.headerregistry',
   '/usr/lib/python3.6/email/headerregistry.py',
   'PYMODULE'),
  ('email._header_value_parser',
   '/usr/lib/python3.6/email/_header_value_parser.py',
   'PYMODULE'),
  ('urllib', '/usr/lib/python3.6/urllib/__init__.py', 'PYMODULE'),
  ('email.iterators', '/usr/lib/python3.6/email/iterators.py', 'PYMODULE'),
  ('email.generator', '/usr/lib/python3.6/email/generator.py', 'PYMODULE'),
  ('random', '/usr/lib/python3.6/random.py', 'PYMODULE'),
  ('bisect', '/usr/lib/python3.6/bisect.py', 'PYMODULE'),
  ('hashlib', '/usr/lib/python3.6/hashlib.py', 'PYMODULE'),
  ('email._encoded_words',
   '/usr/lib/python3.6/email/_encoded_words.py',
   'PYMODULE'),
  ('base64', '/usr/lib/python3.6/base64.py', 'PYMODULE'),
  ('email.charset', '/usr/lib/python3.6/email/charset.py', 'PYMODULE'),
  ('email.encoders', '/usr/lib/python3.6/email/encoders.py', 'PYMODULE'),
  ('email.base64mime', '/usr/lib/python3.6/email/base64mime.py', 'PYMODULE'),
  ('email._policybase', '/usr/lib/python3.6/email/_policybase.py', 'PYMODULE'),
  ('email.header', '/usr/lib/python3.6/email/header.py', 'PYMODULE'),
  ('email.errors', '/usr/lib/python3.6/email/errors.py', 'PYMODULE'),
  ('email.utils', '/usr/lib/python3.6/email/utils.py', 'PYMODULE'),
  ('email._parseaddr', '/usr/lib/python3.6/email/_parseaddr.py', 'PYMODULE'),
  ('email', '/usr/lib/python3.6/email/__init__.py', 'PYMODULE'),
  ('email.parser', '/usr/lib/python3.6/email/parser.py', 'PYMODULE'),
  ('email.feedparser', '/usr/lib/python3.6/email/feedparser.py', 'PYMODULE'),
  ('quopri', '/usr/lib/python3.6/quopri.py', 'PYMODULE'),
  ('uu', '/usr/lib/python3.6/uu.py', 'PYMODULE'),
  ('optparse', '/usr/lib/python3.6/optparse.py', 'PYMODULE'),
  ('http.server', '/usr/lib/python3.6/http/server.py', 'PYMODULE'),
  ('http', '/usr/lib/python3.6/http/__init__.py', 'PYMODULE'),
  ('socketserver', '/usr/lib/python3.6/socketserver.py', 'PYMODULE'),
  ('posixpath', '/usr/lib/python3.6/posixpath.py', 'PYMODULE'),
  ('genericpath', '/usr/lib/python3.6/genericpath.py', 'PYMODULE'),
  ('mimetypes', '/usr/lib/python3.6/mimetypes.py', 'PYMODULE'),
  ('http.client', '/usr/lib/python3.6/http/client.py', 'PYMODULE'),
  ('ssl', '/usr/lib/python3.6/ssl.py', 'PYMODULE'),
  ('ipaddress', '/usr/lib/python3.6/ipaddress.py', 'PYMODULE'),
  ('html', '/usr/lib/python3.6/html/__init__.py', 'PYMODULE'),
  ('html.entities', '/usr/lib/python3.6/html/entities.py', 'PYMODULE'),
  ('pydoc_data.topics', '/usr/lib/python3.6/pydoc_data/topics.py', 'PYMODULE'),
  ('pydoc_data', '/usr/lib/python3.6/pydoc_data/__init__.py', 'PYMODULE'),
  ('tty', '/usr/lib/python3.6/tty.py', 'PYMODULE'),
  ('subprocess', '/usr/lib/python3.6/subprocess.py', 'PYMODULE'),
  ('tempfile', '/usr/lib/python3.6/tempfile.py', 'PYMODULE'),
  ('urllib.parse', '/usr/lib/python3.6/urllib/parse.py', 'PYMODULE'),
  ('tokenize', '/usr/lib/python3.6/tokenize.py', 'PYMODULE'),
  ('token', '/usr/lib/python3.6/token.py', 'PYMODULE'),
  ('platform', '/usr/lib/python3.6/platform.py', 'PYMODULE'),
  ('plistlib', '/usr/lib/python3.6/plistlib.py', 'PYMODULE'),
  ('xml.parsers.expat', '/usr/lib/python3.6/xml/parsers/expat.py', 'PYMODULE'),
  ('xml.parsers', '/usr/lib/python3.6/xml/parsers/__init__.py', 'PYMODULE'),
  ('xml', '/usr/lib/python3.6/xml/__init__.py', 'PYMODULE'),
  ('xml.sax.expatreader',
   '/usr/lib/python3.6/xml/sax/expatreader.py',
   'PYMODULE'),
  ('xml.sax.saxutils', '/usr/lib/python3.6/xml/sax/saxutils.py', 'PYMODULE'),
  ('urllib.request', '/usr/lib/python3.6/urllib/request.py', 'PYMODULE'),
  ('getpass', '/usr/lib/python3.6/getpass.py', 'PYMODULE'),
  ('nturl2path', '/usr/lib/python3.6/nturl2path.py', 'PYMODULE'),
  ('ftplib', '/usr/lib/python3.6/ftplib.py', 'PYMODULE'),
  ('netrc', '/usr/lib/python3.6/netrc.py', 'PYMODULE'),
  ('http.cookiejar', '/usr/lib/python3.6/http/cookiejar.py', 'PYMODULE'),
  ('urllib.response', '/usr/lib/python3.6/urllib/response.py', 'PYMODULE'),
  ('urllib.error', '/usr/lib/python3.6/urllib/error.py', 'PYMODULE'),
  ('xml.sax', '/usr/lib/python3.6/xml/sax/__init__.py', 'PYMODULE'),
  ('xml.sax.handler', '/usr/lib/python3.6/xml/sax/handler.py', 'PYMODULE'),
  ('xml.sax._exceptions',
   '/usr/lib/python3.6/xml/sax/_exceptions.py',
   'PYMODULE'),
  ('xml.sax.xmlreader', '/usr/lib/python3.6/xml/sax/xmlreader.py', 'PYMODULE'),
  ('pkgutil', '/usr/lib/python3.6/pkgutil.py', 'PYMODULE'),
  ('importlib', '/usr/lib/python3.6/importlib/__init__.py', 'PYMODULE'),
  ('importlib.abc', '/usr/lib/python3.6/importlib/abc.py', 'PYMODULE'),
  ('importlib.util', '/usr/lib/python3.6/importlib/util.py', 'PYMODULE'),
  ('importlib.machinery',
   '/usr/lib/python3.6/importlib/machinery.py',
   'PYMODULE'),
  ('importlib._bootstrap_external',
   '/usr/lib/python3.6/importlib/_bootstrap_external.py',
   'PYMODULE'),
  ('importlib._bootstrap',
   '/usr/lib/python3.6/importlib/_bootstrap.py',
   'PYMODULE'),
  ('shlex', '/usr/lib/python3.6/shlex.py', 'PYMODULE'),
  ('glob', '/usr/lib/python3.6/glob.py', 'PYMODULE'),
  ('code', '/usr/lib/python3.6/code.py', 'PYMODULE'),
  ('codeop', '/usr/lib/python3.6/codeop.py', 'PYMODULE'),
  ('dis', '/usr/lib/python3.6/dis.py', 'PYMODULE'),
  ('opcode', '/usr/lib/python3.6/opcode.py', 'PYMODULE'),
  ('bdb', '/usr/lib/python3.6/bdb.py', 'PYMODULE'),
  ('cmd', '/usr/lib/python3.6/cmd.py', 'PYMODULE'),
  ('inspect', '/usr/lib/python3.6/inspect.py', 'PYMODULE'),
  ('ast', '/usr/lib/python3.6/ast.py', 'PYMODULE'),
  ('difflib', '/usr/lib/python3.6/difflib.py', 'PYMODULE'),
  ('__future__', '/usr/lib/python3.6/__future__.py', 'PYMODULE'),
  ('_compat_pickle', '/usr/lib/python3.6/_compat_pickle.py', 'PYMODULE'),
  ('fnmatch', '/usr/lib/python3.6/fnmatch.py', 'PYMODULE'),
  ('stringprep', '/usr/lib/python3.6/stringprep.py', 'PYMODULE'),
  ('os', '/usr/lib/python3.6/os.py', 'PYMODULE'),
  ('ntpath', '/usr/lib/python3.6/ntpath.py', 'PYMODULE'),
  ('GetInput',
   '/home/conz/Documents/development/pyinvaders/GetInput.py',
   'PYMODULE'),
  ('SpaceInvaders',
   '/home/conz/Documents/development/pyinvaders/SpaceInvaders.py',
   'PYMODULE'),
  ('Classes',
   '/home/conz/Documents/development/pyinvaders/Classes.py',
   'PYMODULE')],
 [('libexpat.so.1', '/lib/i386-linux-gnu/libexpat.so.1', 'BINARY'),
  ('libz.so.1', '/lib/i386-linux-gnu/libz.so.1', 'BINARY'),
  ('lib-dynload/_lzma',
   '/usr/lib/python3.6/lib-dynload/_lzma.cpython-36m-i386-linux-gnu.so',
   'EXTENSION'),
  ('lib-dynload/_bz2',
   '/usr/lib/python3.6/lib-dynload/_bz2.cpython-36m-i386-linux-gnu.so',
   'EXTENSION'),
  ('lib-dynload/_hashlib',
   '/usr/lib/python3.6/lib-dynload/_hashlib.cpython-36m-i386-linux-gnu.so',
   'EXTENSION'),
  ('lib-dynload/_ssl',
   '/usr/lib/python3.6/lib-dynload/_ssl.cpython-36m-i386-linux-gnu.so',
   'EXTENSION'),
  ('lib-dynload/termios',
   '/usr/lib/python3.6/lib-dynload/termios.cpython-36m-i386-linux-gnu.so',
   'EXTENSION'),
  ('lib-dynload/readline',
   '/usr/lib/python3.6/lib-dynload/readline.cpython-36m-i386-linux-gnu.so',
   'EXTENSION'),
  ('lib-dynload/_opcode',
   '/usr/lib/python3.6/lib-dynload/_opcode.cpython-36m-i386-linux-gnu.so',
   'EXTENSION'),
  ('lib-dynload/_multibytecodec',
   '/usr/lib/python3.6/lib-dynload/_multibytecodec.cpython-36m-i386-linux-gnu.so',
   'EXTENSION'),
  ('lib-dynload/_codecs_tw',
   '/usr/lib/python3.6/lib-dynload/_codecs_tw.cpython-36m-i386-linux-gnu.so',
   'EXTENSION'),
  ('lib-dynload/_codecs_iso2022',
   '/usr/lib/python3.6/lib-dynload/_codecs_iso2022.cpython-36m-i386-linux-gnu.so',
   'EXTENSION'),
  ('lib-dynload/_codecs_cn',
   '/usr/lib/python3.6/lib-dynload/_codecs_cn.cpython-36m-i386-linux-gnu.so',
   'EXTENSION'),
  ('lib-dynload/_codecs_kr',
   '/usr/lib/python3.6/lib-dynload/_codecs_kr.cpython-36m-i386-linux-gnu.so',
   'EXTENSION'),
  ('lib-dynload/_codecs_jp',
   '/usr/lib/python3.6/lib-dynload/_codecs_jp.cpython-36m-i386-linux-gnu.so',
   'EXTENSION'),
  ('lib-dynload/_codecs_hk',
   '/usr/lib/python3.6/lib-dynload/_codecs_hk.cpython-36m-i386-linux-gnu.so',
   'EXTENSION'),
  ('lib-dynload/resource',
   '/usr/lib/python3.6/lib-dynload/resource.cpython-36m-i386-linux-gnu.so',
   'EXTENSION'),
  ('liblzma.so.5', '/lib/i386-linux-gnu/liblzma.so.5', 'BINARY'),
  ('libbz2.so.1.0', '/lib/i386-linux-gnu/libbz2.so.1.0', 'BINARY'),
  ('libcrypto.so.1.1', '/usr/lib/i386-linux-gnu/libcrypto.so.1.1', 'BINARY'),
  ('libssl.so.1.1', '/usr/lib/i386-linux-gnu/libssl.so.1.1', 'BINARY'),
  ('libtinfo.so.5', '/lib/i386-linux-gnu/libtinfo.so.5', 'BINARY'),
  ('libreadline.so.7', '/lib/i386-linux-gnu/libreadline.so.7', 'BINARY'),
  ('libpython3.6m.so.1.0',
   '/usr/lib/i386-linux-gnu/libpython3.6m.so.1.0',
   'BINARY')],
 [],
 [],
 [('base_library.zip',
   '/home/conz/Documents/development/pyinvaders/build/run/base_library.zip',
   'DATA')],
 [])
