([('run',
   '/home/conz/Documents/development/pyinvaders/build/run/run',
   'EXECUTABLE'),
  ('libexpat.so.1', '/lib/i386-linux-gnu/libexpat.so.1', 'BINARY'),
  ('libz.so.1', '/lib/i386-linux-gnu/libz.so.1', 'BINARY'),
  ('lib-dynload/_lzma',
   '/usr/lib/python3.6/lib-dynload/_lzma.cpython-36m-i386-linux-gnu.so',
   'EXTENSION'),
  ('lib-dynload/_bz2',
   '/usr/lib/python3.6/lib-dynload/_bz2.cpython-36m-i386-linux-gnu.so',
   'EXTENSION'),
  ('lib-dynload/_hashlib',
   '/usr/lib/python3.6/lib-dynload/_hashlib.cpython-36m-i386-linux-gnu.so',
   'EXTENSION'),
  ('lib-dynload/_ssl',
   '/usr/lib/python3.6/lib-dynload/_ssl.cpython-36m-i386-linux-gnu.so',
   'EXTENSION'),
  ('lib-dynload/termios',
   '/usr/lib/python3.6/lib-dynload/termios.cpython-36m-i386-linux-gnu.so',
   'EXTENSION'),
  ('lib-dynload/readline',
   '/usr/lib/python3.6/lib-dynload/readline.cpython-36m-i386-linux-gnu.so',
   'EXTENSION'),
  ('lib-dynload/_opcode',
   '/usr/lib/python3.6/lib-dynload/_opcode.cpython-36m-i386-linux-gnu.so',
   'EXTENSION'),
  ('lib-dynload/_multibytecodec',
   '/usr/lib/python3.6/lib-dynload/_multibytecodec.cpython-36m-i386-linux-gnu.so',
   'EXTENSION'),
  ('lib-dynload/_codecs_tw',
   '/usr/lib/python3.6/lib-dynload/_codecs_tw.cpython-36m-i386-linux-gnu.so',
   'EXTENSION'),
  ('lib-dynload/_codecs_iso2022',
   '/usr/lib/python3.6/lib-dynload/_codecs_iso2022.cpython-36m-i386-linux-gnu.so',
   'EXTENSION'),
  ('lib-dynload/_codecs_cn',
   '/usr/lib/python3.6/lib-dynload/_codecs_cn.cpython-36m-i386-linux-gnu.so',
   'EXTENSION'),
  ('lib-dynload/_codecs_kr',
   '/usr/lib/python3.6/lib-dynload/_codecs_kr.cpython-36m-i386-linux-gnu.so',
   'EXTENSION'),
  ('lib-dynload/_codecs_jp',
   '/usr/lib/python3.6/lib-dynload/_codecs_jp.cpython-36m-i386-linux-gnu.so',
   'EXTENSION'),
  ('lib-dynload/_codecs_hk',
   '/usr/lib/python3.6/lib-dynload/_codecs_hk.cpython-36m-i386-linux-gnu.so',
   'EXTENSION'),
  ('lib-dynload/resource',
   '/usr/lib/python3.6/lib-dynload/resource.cpython-36m-i386-linux-gnu.so',
   'EXTENSION'),
  ('liblzma.so.5', '/lib/i386-linux-gnu/liblzma.so.5', 'BINARY'),
  ('libbz2.so.1.0', '/lib/i386-linux-gnu/libbz2.so.1.0', 'BINARY'),
  ('libcrypto.so.1.1', '/usr/lib/i386-linux-gnu/libcrypto.so.1.1', 'BINARY'),
  ('libssl.so.1.1', '/usr/lib/i386-linux-gnu/libssl.so.1.1', 'BINARY'),
  ('libtinfo.so.5', '/lib/i386-linux-gnu/libtinfo.so.5', 'BINARY'),
  ('libreadline.so.7', '/lib/i386-linux-gnu/libreadline.so.7', 'BINARY'),
  ('libpython3.6m.so.1.0',
   '/usr/lib/i386-linux-gnu/libpython3.6m.so.1.0',
   'BINARY'),
  ('base_library.zip',
   '/home/conz/Documents/development/pyinvaders/build/run/base_library.zip',
   'DATA')],)
