('/home/conz/Documents/development/pyinvaders/build/run/run',
 True,
 False,
 True,
 None,
 None,
 False,
 False,
 None,
 True,
 'run.pkg',
 [('PYZ-00.pyz',
   '/home/conz/Documents/development/pyinvaders/build/run/PYZ-00.pyz',
   'PYZ'),
  ('struct',
   '/home/conz/Documents/development/pyinvaders/build/run/localpycos/struct.pyo',
   'PYMODULE'),
  ('pyimod01_os_path',
   '/home/conz/.local/lib/python3.6/site-packages/PyInstaller/loader/pyimod01_os_path.pyc',
   'PYMODULE'),
  ('pyimod02_archive',
   '/home/conz/.local/lib/python3.6/site-packages/PyInstaller/loader/pyimod02_archive.pyc',
   'PYMODULE'),
  ('pyimod03_importers',
   '/home/conz/.local/lib/python3.6/site-packages/PyInstaller/loader/pyimod03_importers.pyc',
   'PYMODULE'),
  ('pyiboot01_bootstrap',
   '/home/conz/.local/lib/python3.6/site-packages/PyInstaller/loader/pyiboot01_bootstrap.py',
   'PYSOURCE'),
  ('run', '/home/conz/Documents/development/pyinvaders/run.py', 'PYSOURCE')],
 [],
 False,
 False,
 1624850319,
 [('run',
   '/home/conz/.local/lib/python3.6/site-packages/PyInstaller/bootloader/Linux-32bit/run',
   'EXECUTABLE')])
